[
    {
        "key": "group_599ad8216c185",
        "title": "Master Block - Employee Groups",
        "fields": [
            {
                "key": "field_599ad8437af70",
                "label": "Section Content",
                "name": "",
                "type": "tab",
                "instructions": "",
                "required": 0,
                "conditional_logic": 0,
                "wrapper": {
                    "width": "",
                    "class": "",
                    "id": ""
                },
                "placement": "top",
                "endpoint": 0
            },
            {
                "key": "field_599ad85b7af72",
                "label": "Employee Groups",
                "name": "board_groups",
                "type": "repeater",
                "instructions": "",
                "required": 0,
                "conditional_logic": 0,
                "wrapper": {
                    "width": "",
                    "class": "",
                    "id": ""
                },
                "collapsed": "",
                "min": 0,
                "max": 0,
                "layout": "row",
                "button_label": "Add New Board Group",
                "sub_fields": [
                    {
                        "key": "field_599ad89a7af73",
                        "label": "Group Name",
                        "name": "board_name",
                        "type": "text",
                        "instructions": "",
                        "required": 0,
                        "conditional_logic": 0,
                        "wrapper": {
                            "width": "",
                            "class": "",
                            "id": ""
                        },
                        "default_value": "",
                        "placeholder": "",
                        "prepend": "",
                        "append": "",
                        "maxlength": ""
                    },
                    {
                        "key": "field_599ad8ab7af74",
                        "label": "Group Members",
                        "name": "board_members",
                        "type": "repeater",
                        "instructions": "",
                        "required": 0,
                        "conditional_logic": 0,
                        "wrapper": {
                            "width": "",
                            "class": "",
                            "id": ""
                        },
                        "collapsed": "field_599ad8c07af75",
                        "min": 0,
                        "max": 0,
                        "layout": "block",
                        "button_label": "Add Member",
                        "sub_fields": [
                            {
                                "key": "field_599ad8c07af75",
                                "label": "Name",
                                "name": "name",
                                "type": "text",
                                "instructions": "",
                                "required": 0,
                                "conditional_logic": 0,
                                "wrapper": {
                                    "width": "",
                                    "class": "",
                                    "id": ""
                                },
                                "default_value": "",
                                "placeholder": "",
                                "prepend": "",
                                "append": "",
                                "maxlength": ""
                            },
                            {
                                "key": "field_599ad9c77af76",
                                "label": "Position",
                                "name": "position",
                                "type": "text",
                                "instructions": "",
                                "required": 0,
                                "conditional_logic": 0,
                                "wrapper": {
                                    "width": "",
                                    "class": "",
                                    "id": ""
                                },
                                "default_value": "",
                                "placeholder": "",
                                "prepend": "",
                                "append": "",
                                "maxlength": ""
                            },
                            {
                                "key": "field_5a319f39ac697",
                                "label": "Custom Line",
                                "name": "custom_line",
                                "type": "flexible_content",
                                "instructions": "",
                                "required": 0,
                                "conditional_logic": 0,
                                "wrapper": {
                                    "width": "",
                                    "class": "",
                                    "id": ""
                                },
                                "layouts": {
                                    "5a319f93ac69b": {
                                        "key": "5a319f93ac69b",
                                        "name": "text",
                                        "label": "Text",
                                        "display": "block",
                                        "sub_fields": [
                                            {
                                                "key": "field_5a319f72ac699",
                                                "label": "Text Field",
                                                "name": "text",
                                                "type": "text",
                                                "instructions": "",
                                                "required": 0,
                                                "conditional_logic": 0,
                                                "wrapper": {
                                                    "width": "",
                                                    "class": "",
                                                    "id": ""
                                                },
                                                "default_value": "",
                                                "placeholder": "",
                                                "prepend": "",
                                                "append": "",
                                                "maxlength": ""
                                            }
                                        ],
                                        "min": "",
                                        "max": ""
                                    },
                                    "5a319f55e64b8": {
                                        "key": "5a319f55e64b8",
                                        "name": "email",
                                        "label": "Email",
                                        "display": "block",
                                        "sub_fields": [
                                            {
                                                "key": "field_5a319f5bac698",
                                                "label": "Email Address",
                                                "name": "email_address",
                                                "type": "email",
                                                "instructions": "",
                                                "required": 0,
                                                "conditional_logic": 0,
                                                "wrapper": {
                                                    "width": "",
                                                    "class": "",
                                                    "id": ""
                                                },
                                                "default_value": "",
                                                "placeholder": "",
                                                "prepend": "",
                                                "append": ""
                                            }
                                        ],
                                        "min": "",
                                        "max": ""
                                    },
                                    "5a319fceac69c": {
                                        "key": "5a319fceac69c",
                                        "name": "link",
                                        "label": "Link",
                                        "display": "block",
                                        "sub_fields": [
                                            {
                                                "key": "field_5a319f7cac69a",
                                                "label": "Link Label",
                                                "name": "link_label",
                                                "type": "text",
                                                "instructions": "",
                                                "required": 0,
                                                "conditional_logic": 0,
                                                "wrapper": {
                                                    "width": "",
                                                    "class": "",
                                                    "id": ""
                                                },
                                                "default_value": "",
                                                "placeholder": "",
                                                "prepend": "",
                                                "append": "",
                                                "maxlength": ""
                                            },
                                            {
                                                "key": "field_5a319ff7ac69d",
                                                "label": "URL",
                                                "name": "url",
                                                "type": "text",
                                                "instructions": "",
                                                "required": 0,
                                                "conditional_logic": 0,
                                                "wrapper": {
                                                    "width": "",
                                                    "class": "",
                                                    "id": ""
                                                },
                                                "default_value": "",
                                                "placeholder": "",
                                                "prepend": "",
                                                "append": "",
                                                "maxlength": ""
                                            }
                                        ],
                                        "min": "",
                                        "max": ""
                                    }
                                },
                                "button_label": "Add Row",
                                "min": "",
                                "max": ""
                            }
                        ]
                    }
                ]
            },
            {
                "key": "field_599ada647af78",
                "label": "Section Style",
                "name": "",
                "type": "tab",
                "instructions": "",
                "required": 0,
                "conditional_logic": 0,
                "wrapper": {
                    "width": "",
                    "class": "",
                    "id": ""
                },
                "placement": "top",
                "endpoint": 0
            },
            {
                "key": "field_599ada737af79",
                "label": "General Options",
                "name": "general_options",
                "type": "clone",
                "instructions": "",
                "required": 0,
                "conditional_logic": 0,
                "wrapper": {
                    "width": "",
                    "class": "",
                    "id": ""
                },
                "clone": [
                    "field_588674ec7507a",
                    "field_588675167507c",
                    "field_58c965127b940"
                ],
                "display": "seamless",
                "layout": "block",
                "prefix_label": 0,
                "prefix_name": 0
            }
        ],
        "location": [
            [
                {
                    "param": "post_type",
                    "operator": "==",
                    "value": "post"
                }
            ]
        ],
        "menu_order": 0,
        "position": "normal",
        "style": "default",
        "label_placement": "top",
        "instruction_placement": "label",
        "hide_on_screen": "",
        "active": 0,
        "description": ""
    }
]