[
    {
        "key": "group_59a6ca4d00edc",
        "title": "Master Block -  Text with Side Image",
        "fields": [
            {
                "key": "field_59a6caf946823",
                "label": "Section Content",
                "name": "",
                "type": "tab",
                "instructions": "",
                "required": 0,
                "conditional_logic": 0,
                "wrapper": {
                    "width": "",
                    "class": "",
                    "id": ""
                },
                "placement": "top",
                "endpoint": 0
            },
            {
                "key": "field_59a6cb0346824",
                "label": "Text Inputs",
                "name": "text_inputs",
                "type": "clone",
                "instructions": "",
                "required": 0,
                "conditional_logic": 0,
                "wrapper": {
                    "width": "",
                    "class": "",
                    "id": ""
                },
                "clone": [
                    "group_58a357b858039"
                ],
                "display": "seamless",
                "layout": "block",
                "prefix_label": 0,
                "prefix_name": 0
            },
            {
                "key": "field_59a7181872240",
                "label": "Button",
                "name": "button",
                "type": "clone",
                "instructions": "",
                "required": 0,
                "conditional_logic": 0,
                "wrapper": {
                    "width": "",
                    "class": "",
                    "id": ""
                },
                "clone": [
                    "group_588675904e676"
                ],
                "display": "seamless",
                "layout": "block",
                "prefix_label": 0,
                "prefix_name": 0
            },
            {
                "key": "field_59a6cb2346825",
                "label": "Images",
                "name": "images",
                "type": "repeater",
                "instructions": "",
                "required": 0,
                "conditional_logic": 0,
                "wrapper": {
                    "width": "50",
                    "class": "",
                    "id": ""
                },
                "collapsed": "",
                "min": 0,
                "max": 0,
                "layout": "table",
                "button_label": "",
                "sub_fields": [
                    {
                        "key": "field_5a0a106fa1d53",
                        "label": "Image",
                        "name": "image",
                        "type": "image",
                        "instructions": "",
                        "required": 0,
                        "conditional_logic": 0,
                        "wrapper": {
                            "width": "",
                            "class": "",
                            "id": ""
                        },
                        "return_format": "url",
                        "preview_size": "thumbnail",
                        "library": "all",
                        "min_width": "",
                        "min_height": "",
                        "min_size": "",
                        "max_width": "",
                        "max_height": "",
                        "max_size": "",
                        "mime_types": ""
                    }
                ]
            },
            {
                "key": "field_59a6cbb646828",
                "label": "Image Align",
                "name": "image_align",
                "type": "radio",
                "instructions": "",
                "required": 0,
                "conditional_logic": 0,
                "wrapper": {
                    "width": "50",
                    "class": "",
                    "id": ""
                },
                "choices": {
                    "left": "Left",
                    "right": "Right"
                },
                "allow_null": 0,
                "other_choice": 0,
                "save_other_choice": 0,
                "default_value": "right",
                "layout": "vertical",
                "return_format": "value"
            },
            {
                "key": "field_59a6cb5146826",
                "label": "Section Style",
                "name": "",
                "type": "tab",
                "instructions": "",
                "required": 0,
                "conditional_logic": 0,
                "wrapper": {
                    "width": "",
                    "class": "",
                    "id": ""
                },
                "placement": "top",
                "endpoint": 0
            },
            {
                "key": "field_5a0a1092a1d54",
                "label": "Favor the Text",
                "name": "favor_the_text",
                "type": "true_false",
                "instructions": "Check this box to give visual weight to the text rather than the image. (makes the text wider)",
                "required": 0,
                "conditional_logic": 0,
                "wrapper": {
                    "width": "",
                    "class": "",
                    "id": ""
                },
                "message": "",
                "default_value": 0,
                "ui": 0,
                "ui_on_text": "",
                "ui_off_text": ""
            },
            {
                "key": "field_59a6cb6f46827",
                "label": "General Options",
                "name": "general_options",
                "type": "clone",
                "instructions": "",
                "required": 0,
                "conditional_logic": 0,
                "wrapper": {
                    "width": "",
                    "class": "",
                    "id": ""
                },
                "clone": [
                    "field_5886746f75076",
                    "field_588674ec7507a",
                    "field_588675167507c",
                    "field_58c965127b940"
                ],
                "display": "seamless",
                "layout": "block",
                "prefix_label": 0,
                "prefix_name": 0
            }
        ],
        "location": [
            [
                {
                    "param": "post_type",
                    "operator": "==",
                    "value": "post"
                }
            ]
        ],
        "menu_order": 0,
        "position": "acf_after_title",
        "style": "default",
        "label_placement": "top",
        "instruction_placement": "label",
        "hide_on_screen": "",
        "active": 0,
        "description": ""
    }
]